{
  "htmlElements": {
    "tags": [
      "!doctype",
      "a",
      "a\n",
      "body",
      "button",
      "div",
      "footer",
      "form",
      "h1",
      "h2",
      "head",
      "html",
      "i",
      "img",
      "input",
      "label",
      "link",
      "meta",
      "nav",
      "p",
      "script",
      "span",
      "span\n",
      "style",
      "time",
      "title"
    ],
    "classes": [
      "absolute",
      "align-middle",
      "bg-gray-100",
      "bg-gray-800",
      "bg-white",
      "block",
      "bottom-0",
      "col-span-3",
      "container",
      "content",
      "content-center",
      "dark",
      "dark:bg-warmgray-800",
      "dark:bg-warmgray-900",
      "dark:hover:bg-warmgray-800",
      "dark:placeholder-gray-300",
      "dark:text-gray-200",
      "dark:text-gray-300",
      "dark:text-gray-400",
      "dark:text-white",
      "duration-100",
      "duration-200",
      "duration-500",
      "flex",
      "flex-col",
      "flex-grow",
      "flex-no-shrink",
      "flex-wrap",
      "focus:outline-none",
      "font-bold",
      "font-sans",
      "font-semibold",
      "gap-4",
      "grid",
      "grid-cols-3",
      "h-8",
      "hidden",
      "hover:-translate-y-1",
      "hover:bg-gray-100",
      "hover:opacity-50",
      "hover:shadow-md",
      "hover:text-blue-900",
      "icon-access_time",
      "icon-menu",
      "icon-moon",
      "inline-flex",
      "invisible",
      "items-center",
      "justify-between",
      "justify-center",
      "leading-4",
      "leading-normal",
      "lg:block",
      "lg:col-span-1",
      "lg:col-span-2",
      "lg:flex",
      "lg:flex-grow",
      "lg:h-44",
      "lg:max-w-full",
      "lg:mx-5",
      "lg:px-0",
      "lg:w-auto",
      "max-w-full",
      "max-w-screen-xl",
      "mb-2",
      "mb-3",
      "md:flex",
      "md:flex-row",
      "md:hidden",
      "md:visible",
      "md:w-auto",
      "min-h-screen",
      "ml-2",
      "ml-auto",
      "mr-1",
      "mr-2",
      "mr-4",
      "mr-6",
      "mr-auto",
      "mt-3",
      "mt-4",
      "mt-5",
      "mx-6",
      "mx-auto",
      "navmenu",
      "no-underline",
      "p-2",
      "p-3",
      "p-5",
      "p-6",
      "panel",
      "panel-block",
      "pb-1",
      "pb-5",
      "pl-3",
      "pl-4",
      "placeholder-gray-700",
      "px-2",
      "px-3",
      "px-5",
      "py-1",
      "py-2",
      "py-3",
      "py-5",
      "relative",
      "right-0",
      "sm:inline-block",
      "sm:items-center",
      "sm:mt-0",
      "text-2xl",
      "text-4xl",
      "text-base",
      "text-blue-500",
      "text-center",
      "text-gray-600",
      "text-gray-700",
      "text-gray-900",
      "text-lg",
      "text-sm",
      "text-white",
      "text-xl",
      "title",
      "tracking-tight",
      "transform",
      "w-full",
      "widget-search__form"
    ],
    "ids": [
      "content",
      "hamburgerbtn",
      "icon",
      "icon2",
      "mobileMenu",
      "thumb"
    ]
  }
}